{
    "entities": [
        {
            "person": {
                "id": "882ce1da-dab6-11e3-bb64-12725f8f377c",
                "last_name": "Vellacott",
                "first_name": "Jon",
                "client_integration_id": "41"
            }
        },
        {
            "person": {
                "id": "819ce1da-d556-11e3-bb64-12725f8f377c",
                "last_name": "Vellacott",
                "first_name": "Jon",
                "client_integration_id": "42\n          "
            }
        },
        {
            "person": {
                "id": "882ce1da-d556-11e3-bb64-12725f8a377c",
                "email_address": {
                    "id": "882a61da-d556-11e3-bb64-12725f8f377c",
                    "primary": true,
                    "email": "jon.vellacott@ccci.org"
                },
                "last_name": "Vellacott",
                "first_name": "Jon",
                "client_integration_id": "4"
            }
        },
        {
            "person": {
                "id": "882ce1da-d556-1323-bb64-12725f8f377c",
                "authentication": {
                    "id": "882ce1da-d556-11e3-8192-12725f8f377c",
                    "key_guid": "3925839A-F828-4087-8223-816DE32A7BAF"
                },
                "email_address": {
                    "id": "882ce1da-d556-11e3-bb64-12725f8f187c",
                    "email": "chontelle@vellacott.co.uk"
                },
                "first_name": "Chontelle",
                "last_name": "Vellacott",
                "client_integration_id": "42"
            }
        },
        {
            "person": {
                "id": "882ce54a-d556-11e3-bb64-12725f8f377c",
                "email_address": {
                    "id": "882ce1da-d556-1133-bb64-12725f8f377c",
                    "primary": true,
                    "email": "jon.vellacott@ccci.org"
                },
                "last_name": "Vellacott",
                "first_name": "Jon",
                "client_integration_id": "1"
            }
        },
        {
            "person": {
                "id": "889ce1da-d556-11e3-bb64-12725f8f377c",
                "last_name": "Vellacott",
                "first_name": "Chontelle",
                "client_integration_id": "test_42"
            }
        }
    ],
    "meta": {
        "total": 60,
        "from": 7,
        "to": 12,
        "page": 2,
        "total_pages": 10
    }
}
