{
    "entity_types": [
        {
            "id": "6ee78926-d558-11e3-b071-12725f8f377c",
            "name": "gender",
            "description": "Root level gender entity type to store enum values",
            "enum_values": [
                "Male",
                "Female"
            ],
            "field_type": "enum_values"
        },
        {
            "id": "882af9d8-d556-11e3-9b12-12725f8f377c",
            "name": "person",
            "description": "Entity object to hold information about a person",
            "fields": [
                {
                    "id": "882ce1da-d556-11e3-bb64-12725f8f377c",
                    "name": "client_integration_id",
                    "field_type": "string"
                },
                {
                    "id": "889b3bd0-d556-11e3-b5f9-12725f8f377c",
                    "name": "preferred_name",
                    "description": "This is the name by which you are commonly known or how you prefer people address you.",
                    "field_type": "string"
                },
                {
                    "id": "887ed0ee-d556-11e3-b0b0-12725f8f377c",
                    "name": "first_name",
                    "description": "Your official given name.",
                    "field_type": "string"
                },
                {
                    "id": "88b90c00-d556-11e3-b7f0-12725f8f377c",
                    "name": "region",
                    "field_type": "string"
                },
                {
                    "id": "88c77ed4-d556-11e3-88a1-12725f8f377c",
                    "name": "work_in_us",
                    "field_type": "boolean"
                },
                {
                    "id": "88d55a04-d556-11e3-8f57-12725f8f377c",
                    "name": "us_citizen",
                    "field_type": "boolean"
                },
                {
                    "id": "88e47c14-d556-11e3-b1f4-12725f8f377c",
                    "name": "citizenship",
                    "field_type": "string"
                },
                {
                    "id": "88f21180-d556-11e3-a69c-12725f8f377c",
                    "name": "is_staff",
                    "field_type": "boolean"
                },
                {
                    "id": "88ffd766-d556-11e3-aad9-12725f8f377c",
                    "name": "title",
                    "field_type": "string"
                },
                {
                    "id": "683db96a-d558-11e3-ae76-12725f8f377c",
                    "name": "language",
                    "description": "One or more languages this person speaks (in order of priority)",
                    "field_type": "string"
                },
                {
                    "id": "890e616e-d556-11e3-b13c-12725f8f377c",
                    "name": "campus",
                    "field_type": "string"
                },
                {
                    "id": "891cd672-d556-11e3-9782-12725f8f377c",
                    "name": "university_state",
                    "field_type": "string"
                },
                {
                    "id": "888d4d36-d556-11e3-975d-12725f8f377c",
                    "name": "middle_name",
                    "description": "One or more middle names",
                    "field_type": "string"
                },
                {
                    "id": "892b8e1a-d556-11e3-a49f-12725f8f377c",
                    "name": "year_in_school",
                    "field_type": "string"
                },
                {
                    "id": "893a1566-d556-11e3-80e8-12725f8f377c",
                    "name": "major",
                    "field_type": "string"
                },
                {
                    "id": "8949461c-d556-11e3-a3bc-12725f8f377c",
                    "name": "greek_affiliation",
                    "field_type": "string"
                },
                {
                    "id": "89660798-d556-11e3-abca-12725f8f377c",
                    "name": "date_became_christian",
                    "field_type": "date"
                },
                {
                    "id": "8974deda-d556-11e3-ade9-12725f8f377c",
                    "name": "graduation_date",
                    "field_type": "date"
                },
                {
                    "id": "89838ac0-d556-11e3-8a4b-12725f8f377c",
                    "name": "is_secure",
                    "field_type": "boolean"
                },
                {
                    "id": "8992170c-d556-11e3-922a-12725f8f377c",
                    "name": "organization_tree_cache",
                    "field_type": "text"
                },
                {
                    "id": "8870bc7a-d556-11e3-be34-12725f8f377c",
                    "name": "last_name",
                    "description": "Your official family name.",
                    "field_type": "string"
                },
                {
                    "id": "89a02f4a-d556-11e3-8c1e-12725f8f377c",
                    "name": "org_ids_cache",
                    "field_type": "text"
                },
                {
                    "id": "89aefcaa-d556-11e3-9581-12725f8f377c",
                    "name": "siebel_contact_id",
                    "field_type": "string"
                },
                {
                    "id": "6993dbd2-d558-11e3-867a-12725f8f377c",
                    "name": "mcc",
                    "description": "Mission Critical Component",
                    "field_type": "enum"
                },
                {
                    "id": "89bd490e-d556-11e3-b11c-12725f8f377c",
                    "name": "account_number",
                    "field_type": "string"
                },
                {
                    "id": "89cc1f56-d556-11e3-83ca-12725f8f377c",
                    "name": "username",
                    "field_type": "string"
                },
                {
                    "id": "89da4a54-d556-11e3-96eb-12725f8f377c",
                    "name": "birth_year",
                    "field_type": "integer"
                },
                {
                    "id": "89ea34aa-d556-11e3-8eb0-12725f8f377c",
                    "name": "birth_month",
                    "field_type": "integer"
                },
                {
                    "id": "89fed748-d556-11e3-bfc6-12725f8f377c",
                    "name": "birth_day",
                    "field_type": "integer"
                },
                {
                    "id": "670618da-d558-11e3-9c42-12725f8f377c",
                    "name": "key_username",
                    "description": "Username in Relay",
                    "field_type": "string"
                },
                {
                    "id": "6adfaeee-d558-11e3-a097-12725f8f377c",
                    "name": "funding_source",
                    "field_type": "enum"
                },
                {
                    "id": "88a97196-d556-11e3-80e1-12725f8f377c",
                    "name": "gender",
                    "description": "'Male' or 'Female'",
                    "field_type": "enum"
                },
                {
                    "id": "8957de0c-d556-11e3-86e6-12725f8f377c",
                    "name": "marital_status",
                    "description": "Marital status",
                    "field_type": "enum"
                },
                {
                    "id": "6c10e15c-d558-11e3-b562-12725f8f377c",
                    "name": "staff_status",
                    "description": "This identifies your working relationship with Campus Crusade, if any.",
                    "field_type": "enum"
                },
                {
                    "id": "6d591d90-d558-11e3-ab96-12725f8f377c",
                    "name": "role",
                    "description": "This is your role or position within Campus Crusade.",
                    "field_type": "enum"
                },
                {
                    "id": "2c81cdea-d557-11e3-b111-12725f8f377c",
                    "name": "authentication",
                    "description": "Entity object to hold unique identifiers to 3rd party authentication systems",
                    "fields": [
                        {
                            "id": "8ffb09f4-d557-11e3-b42f-12725f8f377c",
                            "name": "google_apps_uid",
                            "field_type": "string"
                        },
                        {
                            "id": "6e312ef2-d557-11e3-910f-12725f8f377c",
                            "name": "key_guid",
                            "description": "Globally Unique ID from The Key",
                            "field_type": "string"
                        },
                        {
                            "id": "2c82fd82-d557-11e3-b6ec-12725f8f377c",
                            "name": "client_integration_id",
                            "field_type": "string"
                        },
                        {
                            "id": "56547c30-d557-11e3-876e-12725f8f377c",
                            "name": "relay_guid",
                            "description": "Globally Unique ID from Relay",
                            "field_type": "string"
                        },
                        {
                            "id": "7f318dbe-d557-11e3-9386-12725f8f377c",
                            "name": "facebook_uid",
                            "description": "Facebook user id",
                            "field_type": "integer"
                        }
                    ]
                },
                {
                    "id": "6dc1ddd0-d558-11e3-9aab-12725f8f377c",
                    "name": "employment_contry",
                    "description": "This is the country from which you receive your salary or other compensation.",
                    "field_type": "string"
                },
                {
                    "id": "6e257e76-d558-11e3-b951-12725f8f377c",
                    "name": "date_joined_staff",
                    "description": "This is the date you officially joined Campus Crusade.",
                    "field_type": "date"
                },
                {
                    "id": "6e89e9a6-d558-11e3-b7f8-12725f8f377c",
                    "name": "date_left_staff",
                    "description": "This is the date a person officially left Campus Crusade. (Administrative use only; filled in by HR professional)",
                    "field_type": "date"
                },
                {
                    "id": "6fa89af8-d558-11e3-8eea-12725f8f377c",
                    "name": "birth_date",
                    "description": "Format: yyyy-mm-dd",
                    "field_type": "date"
                },
                {
                    "id": "71b48d70-d558-11e3-b736-12725f8f377c",
                    "name": "email_address",
                    "description": "Entity object to hold information related to an email address",
                    "fields": [
                        {
                            "id": "71c97e1a-d558-11e3-9846-12725f8f377c",
                            "name": "client_integration_id",
                            "field_type": "string"
                        },
                        {
                            "id": "7231f954-d558-11e3-aaee-12725f8f377c",
                            "name": "email",
                            "description": "Actual email address",
                            "field_type": "email"
                        },
                        {
                            "id": "7277a2a6-d558-11e3-b56f-12725f8f377c",
                            "name": "primary",
                            "description": "True if this is the person's primary email address",
                            "field_type": "boolean"
                        },
                        {
                            "id": "72c2a53a-d558-11e3-9dc9-12725f8f377c",
                            "name": "location",
                            "description": "Location of email address (work, home, etc)",
                            "field_type": "string"
                        }
                    ]
                },
                {
                    "id": "72fc0ca8-d558-11e3-9258-12725f8f377c",
                    "name": "phone_number",
                    "description": "Entity object to hold information related to a phone number",
                    "fields": [
                        {
                            "id": "73f800f8-d558-11e3-9839-12725f8f377c",
                            "name": "extension",
                            "description": "Extention",
                            "field_type": "string"
                        },
                        {
                            "id": "737183de-d558-11e3-8891-12725f8f377c",
                            "name": "number",
                            "description": "Actual phone number",
                            "field_type": "string"
                        },
                        {
                            "id": "75042d1e-d558-11e3-a27f-12725f8f377c",
                            "name": "primary",
                            "description": "True if this is the person's primary email address",
                            "field_type": "boolean"
                        },
                        {
                            "id": "7318634e-d558-11e3-872e-12725f8f377c",
                            "name": "client_integration_id",
                            "field_type": "string"
                        },
                        {
                            "id": "7482fb90-d558-11e3-b3a9-12725f8f377c",
                            "name": "location",
                            "description": "Location of phone number (work, home, mobile, etc)",
                            "field_type": "string"
                        }
                    ]
                },
                {
                    "id": "75874b9a-d558-11e3-8d1a-12725f8f377c",
                    "name": "address",
                    "description": "Entity object to hold information related to an address",
                    "fields": [
                        {
                            "id": "7602a6be-d558-11e3-af56-12725f8f377c",
                            "name": "line1",
                            "description": "First line of your street address",
                            "field_type": "string"
                        },
                        {
                            "id": "7685c530-d558-11e3-a43e-12725f8f377c",
                            "name": "line2",
                            "description": "Second line of your street address",
                            "field_type": "string"
                        },
                        {
                            "id": "759e1c30-d558-11e3-b1fb-12725f8f377c",
                            "name": "client_integration_id",
                            "field_type": "string"
                        },
                        {
                            "id": "77bd4d74-d558-11e3-a886-12725f8f377c",
                            "name": "city",
                            "description": "City/Town",
                            "field_type": "string"
                        },
                        {
                            "id": "770a5872-d558-11e3-9d6d-12725f8f377c",
                            "name": "dorm",
                            "description": "Dorm room number",
                            "field_type": "string"
                        },
                        {
                            "id": "783b3310-d558-11e3-aba2-12725f8f377c",
                            "name": "state",
                            "description": "State/Province/Region",
                            "field_type": "string"
                        },
                        {
                            "id": "78bbf4f0-d558-11e3-8bdf-12725f8f377c",
                            "name": "postal_code",
                            "description": "Zip code, postal code, mail code, etc",
                            "field_type": "string"
                        },
                        {
                            "id": "7939b0de-d558-11e3-a2dd-12725f8f377c",
                            "name": "country",
                            "description": "State/Province/Region",
                            "field_type": "string"
                        }
                    ]
                }
            ],
            "relationships": [
                {
                    "relationship_type": {
                        "id": "7cd27938-d558-11e3-868a-12725f8f377c",
                        "relationship1": {
                            "entity_type": "person",
                            "relationship_name": "person"
                        },
                        "relationship2": {
                            "entity_type": "ministry",
                            "relationship_name": "ministry"
                        },
                        "enum_entity_type_id": "6c79a444-d558-11e3-908c-12725f8f377c"
                    }
                },
                {
                    "relationship_type": {
                        "id": "7cf075aa-d558-11e3-b33d-12725f8f377c",
                        "relationship1": {
                            "entity_type": "person",
                            "relationship_name": "husband"
                        },
                        "relationship2": {
                            "entity_type": "person",
                            "relationship_name": "wife"
                        }
                    }
                }
            ]
        },
        {
            "id": "79c39966-d558-11e3-b138-12725f8f377c",
            "name": "ministry_type",
            "description": "Root level ministry assigment type entity type to store enum values",
            "enum_values": [
                "Global Leadership Team",
                "Global",
                "Area Leadership Teamm",
                "Area",
                "National Leadership Team",
                "National",
                "Regional",
                "Field Team"
            ],
            "field_type": "enum_values"
        }
    ],
    "meta": {
      "next_page": true,
        "total": 10,
        "from": 7,
        "to": 9,
        "page": 3,
        "total_pages": 4
    }
}
