{
    "entities": [
        {
            "person": {
                "id": 7178366,
                "last_name": "Vellacott",
                "first_name": "Jon",
                "client_integration_id": "41"
            }
        },
        {
            "person": {
                "id": 7178370,
                "last_name": "Vellacott",
                "first_name": "Jon",
                "client_integration_id": "42\n          "
            }
        },
        {
            "person": {
                "id": 7178304,
                "email_address": {
                    "id": 7178308,
                    "primary": true,
                    "email": "jon.vellacott@ccci.org"
                },
                "last_name": "Vellacott",
                "first_name": "Jon",
                "client_integration_id": "4"
            }
        },
        {
            "person": {
                "id": 7177988,
                "authentication": {
                    "id": 7177995,
                    "key_guid": "3925839A-F828-4087-8223-816DE32A7BAF"
                },
                "email_address": {
                    "id": 7177993,
                    "email": "chontelle@vellacott.co.uk"
                },
                "first_name": "Chontelle",
                "last_name": "Vellacott",
                "client_integration_id": "42"
            }
        },
        {
            "person": {
                "id": 7178297,
                "email_address": {
                    "id": 7178301,
                    "primary": true,
                    "email": "jon.vellacott@ccci.org"
                },
                "last_name": "Vellacott",
                "first_name": "Jon",
                "client_integration_id": "1"
            }
        },
        {
            "person": {
                "id": 7178362,
                "last_name": "Vellacott",
                "first_name": "Chontelle",
                "client_integration_id": "test_42"
            }
        }
    ],
    "meta": {
        "total": 60,
        "from": 7,
        "to": 12,
        "page": 2,
        "total_pages": 10
    }
}
